{
  "project_info": {
    "project_number": "959734764851",
    "project_id": "dialog-185409"
  },
  "client": [
    {
      "client_info": {
        "mobilesdk_app_id": "1:959734764851:android:bbd6cebf95b2fabb",
        "android_client_info": {
          "package_name": "de.fh_erfurt.ai.dialog"
        }
      },
      "oauth_client": [
        {
          "client_id": "959734764851-ueved1v5tgk5htvbhb5k8ob2vhi9lngt.apps.googleusercontent.com",
          "client_type": 1,
          "android_info": {
            "package_name": "de.fh_erfurt.ai.dialog",
            "certificate_hash": "da465b5d3eec51b3aedf626217851031693a2c69"
          }
        },
        {
          "client_id": "959734764851-vmok8m0h68vhu7vkgqntpqkjsvmfec30.apps.googleusercontent.com",
          "client_type": 3
        }
      ],
      "api_key": [
        {
          "current_key": "AIzaSyAgvPFk_ghdRXQCrbG_4fsJRwcoRriekfo"
        }
      ],
      "services": {
        "analytics_service": {
          "status": 1
        },
        "appinvite_service": {
          "status": 1,
          "other_platform_oauth_client": []
        },
        "ads_service": {
          "status": 1
        }
      }
    }
  ],
  "configuration_version": "1"
}